simulation/qsim/fsm.msim.vcd
$comment
	File created using the following command:
		vcd file fsm.msim.vcd -direction
$end
$date
	Tue Dec 01 20:49:01 2020
$end
$version
	ModelSim Version 10.1d
$end
$timescale
	1ps
$end
$scope module fsm_vlg_vec_tst $end
$var reg 1 ! clk $end
$var reg 1 " data_in $end
$var reg 1 # reset $end
$var wire 1 $ current_state [3] $end
$var wire 1 % current_state [2] $end
$var wire 1 & current_state [1] $end
$var wire 1 ' current_state [0] $end
$var wire 1 ( student_id [3] $end
$var wire 1 ) student_id [2] $end
$var wire 1 * student_id [1] $end
$var wire 1 + student_id [0] $end
$var wire 1 , sampler $end
$scope module i1 $end
$var wire 1 - gnd $end
$var wire 1 . vcc $end
$var wire 1 / unknown $end
$var tri1 1 0 devclrn $end
$var tri1 1 1 devpor $end
$var tri1 1 2 devoe $end
$var wire 1 3 clk~combout $end
$var wire 1 4 clk~clkctrl_outclk $end
$var wire 1 5 yfsm.s2~feeder_combout $end
$var wire 1 6 reset~combout $end
$var wire 1 7 reset~clkctrl_outclk $end
$var wire 1 8 data_in~combout $end
$var wire 1 9 yfsm.s2~regout $end
$var wire 1 : yfsm.s3~regout $end
$var wire 1 ; yfsm.s4~feeder_combout $end
$var wire 1 < yfsm.s4~regout $end
$var wire 1 = yfsm.s5~regout $end
$var wire 1 > yfsm.s6~feeder_combout $end
$var wire 1 ? yfsm.s6~regout $end
$var wire 1 @ yfsm.s7~feeder_combout $end
$var wire 1 A yfsm.s7~regout $end
$var wire 1 B yfsm.s8~feeder_combout $end
$var wire 1 C yfsm.s8~regout $end
$var wire 1 D yfsm.s0~0_combout $end
$var wire 1 E yfsm.s0~regout $end
$var wire 1 F yfsm.s1~0_combout $end
$var wire 1 G yfsm.s1~regout $end
$var wire 1 H WideOr11~combout $end
$var wire 1 I WideOr10~0_combout $end
$var wire 1 J WideOr9~0_combout $end
$var wire 1 K WideOr14~0_combout $end
$var wire 1 L WideOr13~0_combout $end
$var wire 1 M WideOr12~combout $end
$upscope $end
$upscope $end
$enddefinitions $end
#0
$dumpvars
0!
0"
0#
0'
0&
0%
0$
1+
0*
1)
0(
x,
0-
1.
x/
10
11
12
03
04
05
06
07
08
09
0:
0;
0<
0=
0>
0?
0@
0A
0B
0C
1D
0E
1F
0G
0H
1I
1J
0K
0L
0M
$end
#10000
1!
13
14
0,
#20000
1"
0!
18
03
04
1,
#30000
1!
13
14
0,
1G
1E
1K
1H
15
0J
0F
1'
0)
0+
#40000
0"
0!
08
03
04
1,
#50000
1!
13
14
0,
#60000
1"
0!
18
03
04
1,
#70000
1!
13
14
0,
0G
19
0K
05
1L
0'
1&
#80000
0"
0!
08
03
04
1,
#90000
1!
13
14
0,
#100000
1"
0!
18
03
04
1,
#110000
1!
13
14
0,
1:
09
1K
1;
0H
1(
1'
1+
#120000
0"
0!
08
03
04
1,
#130000
1!
13
14
0,
#140000
1"
0!
18
03
04
1,
#150000
1!
13
14
0,
1<
0:
1M
1J
0L
0K
0;
0(
1%
1)
0&
0'
#160000
0"
0!
08
03
04
1,
#170000
1!
13
14
0,
#180000
1"
0!
18
03
04
1,
#190000
1!
13
14
0,
1=
0<
1K
0I
1>
1'
1*
#200000
0"
0!
08
03
04
1,
#210000
1!
13
14
0,
#220000
1"
0!
18
03
04
1,
#230000
1!
13
14
0,
1?
0=
1L
1@
0K
0>
1&
0'
#240000
0"
0!
08
03
04
1,
#250000
1!
13
14
0,
#260000
1"
0!
18
03
04
1,
#270000
1!
13
14
0,
1A
0?
1K
1H
1B
0J
0@
1'
0)
0+
#280000
0"
0!
08
03
04
1,
#290000
1!
13
14
0,
#300000
1"
0!
18
03
04
1,
#310000
1!
13
14
0,
1C
0A
0D
0M
0L
0K
1I
0H
0B
1$
0%
0&
0'
0*
1+
#320000
0"
0!
08
03
04
1,
#330000
1!
13
14
0,
#340000
1"
0!
18
03
04
1,
